{
	"images":[
		"http://www.google.com/intl/ru_ALL/analytics/images/row-img-stats.png",
		"http://www.google.com/intl/ru_ALL/analytics/images/social_hero.png",
		"http://www.google.com/analytics/images/social_promo_conversion.png",
		"http://www.google.com/analytics/images/social_promo_conversion.png",
		"http://www.google.com/analytics/images/social_promo_referral.png",
		"http://www.google.com/analytics/images/social_promo_plugins.png",
		"http://www.google.com/analytics/images/socialconversions_hero.png",
		"http://www.google.com/analytics/images/socialreferrals_hero.png",
		"http://www.google.com/analytics/images/socialplugins_hero.png",
		"http://www.google.com/intl/ru_ALL/analytics/images/feat-hed-mobile.png"
	]
}